ParteC/simulation/qsim/ParteC.msim.vcd
$comment
	File created using the following command:
		vcd file ParteC.msim.vcd -direction
$end
$date
	Sat Nov 12 17:38:10 2022
$end
$version
	ModelSim Version 10.1d
$end
$timescale
	1ps
$end
$scope module Sum4bit_vlg_vec_tst $end
$var reg 1 ! Bit_0 $end
$var reg 1 " Bit_1 $end
$var reg 1 # Bit_2 $end
$var reg 1 $ Bit_3 $end
$var reg 1 % Clear $end
$var reg 1 & Load $end
$var reg 1 ' SUMAoRESTA $end
$var reg 1 ( Transfer $end
$var wire 1 ) Carry $end
$var wire 1 * Overflow $end
$var wire 1 + Salida_0 $end
$var wire 1 , Salida_1 $end
$var wire 1 - Salida_2 $end
$var wire 1 . Salida_3 $end
$var wire 1 / Signo $end
$var wire 1 0 Zero $end
$var wire 1 1 sampler $end
$scope module i1 $end
$var wire 1 2 gnd $end
$var wire 1 3 vcc $end
$var wire 1 4 unknown $end
$var tri1 1 5 devclrn $end
$var tri1 1 6 devpor $end
$var tri1 1 7 devoe $end
$var wire 1 8 inst6~q $end
$var wire 1 9 inst13~combout $end
$var wire 1 : Load~input_o $end
$var wire 1 ; Transfer~input_o $end
$var wire 1 < Bit_1~input_o $end
$var wire 1 = Carry~output_o $end
$var wire 1 > Overflow~output_o $end
$var wire 1 ? Zero~output_o $end
$var wire 1 @ Salida_0~output_o $end
$var wire 1 A Salida_1~output_o $end
$var wire 1 B Salida_2~output_o $end
$var wire 1 C Salida_3~output_o $end
$var wire 1 D Signo~output_o $end
$var wire 1 E SUMAoRESTA~input_o $end
$var wire 1 F Bit_2~input_o $end
$var wire 1 G inst14~combout $end
$var wire 1 H inst9~q $end
$var wire 1 I Bit_0~input_o $end
$var wire 1 J inst12~combout $end
$var wire 1 K inst5~q $end
$var wire 1 L inst3|f~0_combout $end
$var wire 1 M inst4~feeder_combout $end
$var wire 1 N Clear~input_o $end
$var wire 1 O inst4~q $end
$var wire 1 P inst3|cout~1_combout $end
$var wire 1 Q inst3|cout~0_combout $end
$var wire 1 R inst16|f~combout $end
$var wire 1 S inst7~q $end
$var wire 1 T inst16|cout~0_combout $end
$var wire 1 U inst17|f~0_combout $end
$var wire 1 V inst8~q $end
$var wire 1 W inst17|cout~1_combout $end
$var wire 1 X Bit_3~input_o $end
$var wire 1 Y inst15~combout $end
$var wire 1 Z inst10~q $end
$var wire 1 [ inst17|cout~0_combout $end
$var wire 1 \ inst18|cout~0_combout $end
$var wire 1 ] inst~combout $end
$var wire 1 ^ inst18|f~combout $end
$var wire 1 _ inst11~q $end
$var wire 1 ` inst24~0_combout $end
$var wire 1 a inst23~combout $end
$upscope $end
$upscope $end
$enddefinitions $end
#0
$dumpvars
1!
0"
1#
0$
0%
0&
0'
0(
x)
x*
x+
x,
x-
x.
x/
x0
x1
02
13
x4
15
16
17
08
x9
0:
0;
0<
x=
x>
x?
x@
xA
xB
xC
xD
0E
1F
xG
0H
1I
xJ
0K
xL
xM
0N
0O
xP
xQ
xR
0S
xT
xU
0V
xW
0X
xY
0Z
x[
x\
x]
x^
0_
x`
xa
$end
#488
0Q
#492
0[
#635
0P
#753
0W
#986
0T
#1142
0^
#1163
0R
#1213
0\
#1366
0U
#1863
0`
#3033
0D
0/
#3969
0C
0.
#4304
0Y
0]
#4525
1G
#4535
1J
#4537
09
#4541
0L
#4639
0B
0-
#5016
0>
0*
#5096
0M
#5258
0a
#5542
0A
0,
#6973
0=
0)
#7650
0@
0+
#9134
1?
10
#10000
1%
1&
01
#10776
1N
#10796
1:
#14704
1H
1K
#15259
1L
#15427
1U
#15782
1M
#15947
1a
#18476
1@
1+
#18750
1B
1-
#19799
0?
00
#20000
1(
0&
11
#20806
1;
#20903
0:
#22526
1O
1V
#22934
0L
#22950
1Q
#22955
0U
#23182
1[
#23318
1R
#23489
0M
#23560
1`
#23697
0a
#23877
1^
#24009
1a
#25000
0#
01
#25913
0F
#26043
0@
0+
#26228
0B
0-
#26799
1C
1.
#26832
1>
1*
#27816
1A
1,
#29305
0G
#30000
0(
1&
11
#30796
1:
#30913
0;
#34704
0H
#35196
0[
#35518
1U
#35589
0`
#35934
0^
#38742
0>
0*
#38761
0C
0.
#38841
1B
1-
#40000
1(
0&
01
#40806
1;
#40903
0:
#42526
0O
1S
#43014
0Q
#43028
1L
#43219
1T
#43390
0T
#43551
1M
#46245
1@
1+
#50000
0(
1&
11
#50796
1:
#50913
0;
#60000
1(
0&
01
#60806
1;
#60903
0:
#62526
1O
#62934
0L
#62950
1Q
#63302
0R
#63316
1T
#63489
0M
#63669
0U
#63684
1W
#64066
1^
#64411
0a
#64779
1`
#65138
1a
#66043
0@
0+
#66942
0B
0-
#66988
1C
1.
#67681
0A
0,
#68051
1>
1*
#70000
0(
1&
11
#70796
1:
#70913
0;
#75000
1#
01
#75806
1F
#78967
1G
#80000
1"
1(
0&
11
#80766
1<
#80806
1;
#80903
0:
#82526
0O
0S
0V
1_
#82935
1U
#82955
0^
#83014
0Q
#83028
1L
#83151
0W
#83244
1\
#83281
0`
#83329
0T
#83551
1M
#83556
1^
#83709
0U
#83790
1]
#84180
19
#84253
0\
#84782
0]
#85596
1D
1/
#86245
1@
1+
#86434
0>
0*
#90000
0(
1&
01
#90796
1:
#90913
0;
#94704
18
1H
#95427
1U
#95648
1R
#98750
1B
1-
#100000
0#
0"
1(
0&
11
#100146
1A
1,
#100806
1;
#100873
0<
#100903
0:
#100913
0F
#102526
1O
1S
1V
#102934
0L
#102950
1Q
#102955
0U
#103182
1[
#103219
1T
#103489
0M
#103557
1\
#103587
1W
#103588
1U
#103879
0^
#104103
1]
#104305
0G
#104515
09
#106043
0@
0+
#106706
0C
0.
#106845
1=
1)
#110000
0(
1&
01
#110796
1:
#110913
0;
#114704
08
0H
#115196
0[
#115529
0U
#115709
0R
#116271
0a
#118802
0B
0-
#120000
1"
1(
0&
11
#120088
0A
0,
#120147
1?
10
#120766
1<
#120806
1;
#120903
0:
#122526
0O
0S
0V
0_
#122935
1^
1U
#123014
0Q
#123028
1L
#123151
0W
#123329
0T
#123364
0\
#123367
1`
#123540
0^
#123551
1M
#123709
0U
#123716
1a
#123893
0]
#124180
19
#124261
0`
#125559
0D
0/
#126245
1@
1+
#126562
0=
0)
#127568
0?
00
#130000
0(
1&
01
#130796
1:
#130913
0;
#134704
18
#135648
1R
#140000
0"
1(
0&
11
#140146
1A
1,
#140806
1;
#140873
0<
#140903
0:
#142526
1O
1S
#142934
0L
#142950
1Q
#143219
1T
#143489
0M
#143588
1U
#144515
09
#146043
0@
0+
#146911
1B
1-
#150000
0!
1#
0(
1&
01
#150796
1:
#150806
1F
#150893
0I
#150913
0;
#153967
1G
#154704
08
1H
#155047
0J
#155364
1W
#155438
0U
#155709
0R
#155746
1^
#156396
0a
#156459
1`
#156818
1a
#158668
1C
1.
#158711
0B
0-
#159731
1>
1*
#160000
1$
1(
0&
11
#160088
0A
0,
#160766
1X
#160806
1;
#160903
0:
#162526
0O
0S
1_
#162955
0^
#163014
0Q
#163028
1L
#163244
1\
#163281
0`
#163329
0T
#163551
1M
#163709
0W
#163725
1U
#163790
1]
#164114
1^
#164672
1Y
#164811
0\
#165340
0]
#165596
1D
1/
#166245
1@
1+
#166434
0>
0*
#167048
1B
1-
#170000
0(
1&
01
#170796
1:
#170913
0;
#174704
0K
1Z
#175340
0L
#175845
0^
#175895
0M
#175916
1\
1`
#176462
1]
#178449
0@
0+
#178672
0C
0.
#179188
1>
1*
#179204
1=
1)
#180000
1"
1!
1(
0&
11
#180766
1<
#180786
1I
#180806
1;
#180903
0:
#182526
1V
0_
#182935
1^
#182955
0U
#183182
1[
#183364
0\
#183375
0`
#183557
1\
#183879
0^
#184180
19
#184661
1J
#184925
0a
#185559
0D
0/
#186228
0B
0-
#186528
0>
0*
#188801
1?
10
#190000
0(
1&
01
#190796
1:
#190913
0;
#194704
18
1K
#195259
1L
#195648
1R
#195782
1M
#195947
1a
#198476
1@
1+
#199799
0?
00
#200000
0$
1(
0&
11
#200146
1A
1,
#200806
1;
#200873
0X
#200903
0:
#202526
1O
1S
0V
#202934
0L
#202935
1U
#202950
1Q
#203219
1T
#203271
0[
#203489
0M
#203572
0U
#203587
1W
#203662
0\
#204191
0]
#204661
1\
#204975
0Y
#205207
1]
#206043
0@
0+
#210000
0(
1&
01
#210796
1:
#210913
0;
#214704
0Z
#215891
1^
#215917
0\
#215923
1`
#216446
0]
#218813
1C
1.
#219115
0=
0)
#219195
1>
1*
#220000
0"
1(
0&
11
#220806
1;
#220873
0<
#220903
0:
#222526
0O
1_
#222955
0^
#223014
0Q
#223028
1L
#223244
1\
#223281
0`
#223393
0R
#223551
1M
#223790
1]
#224515
09
#225596
1D
1/
#225782
0C
0.
#226245
1@
1+
#226434
0>
0*
#226532
1=
1)
#227772
0A
0,
#230000
0(
1&
01
#230796
1:
#230913
0;
#234704
08
#235690
0T
#235701
1R
#236070
0W
#236086
1U
#236475
1^
#237172
0\
#237701
0]
#239397
1C
1.
#239409
1B
1-
#240000
0!
1(
0&
11
#240199
1A
1,
#240370
0=
0)
#240806
1;
#240893
0I
#240903
0:
#242526
1O
1V
#242934
0L
#242950
1Q
#242955
0U
#243182
1[
#243302
0R
#243316
1T
#243489
0M
#243557
1\
#243684
1W
#243685
1U
#243879
0^
#244103
1]
#245047
0J
#246043
0@
0+
#246706
0C
0.
#246845
1=
1)
#247681
0A
0,
#250000
0#
0(
1&
01
#250796
1:
#250913
0;
0F
#254305
0G
#254704
0H
0K
#255196
0[
#255342
0Q
#255346
1L
#255529
0U
#255718
0T
#255737
1R
#255869
1M
#256098
0W
#256114
1U
#256503
1^
#257200
0\
#257729
0]
#258563
1@
1+
#259425
1C
1.
#260000
1(
0&
11
#260235
1A
1,
#260398
0=
0)
#260806
1;
#260903
0:
#270000
0(
1&
01
#270796
1:
#270913
0;
#280000
1$
1(
0&
11
#280766
1X
#280806
1;
#280903
0:
#284672
1Y
#290000
0(
1&
01
#290796
1:
#290913
0;
#294704
1Z
#295845
0^
#295916
1\
1`
#296462
1]
#298672
0C
0.
#299188
1>
1*
#299204
1=
1)
#300000
1!
1#
1(
0&
11
#300786
1I
#300806
1;
1F
#300903
0:
#302526
0_
#302935
1^
#303364
0\
#303375
0`
#303893
0]
#303967
1G
#304661
1J
#305559
0D
0/
#305857
1C
1.
#306528
0>
0*
#306562
0=
0)
#310000
0(
1&
01
#310796
1:
#310913
0;
#314704
1H
1K
#315131
1[
#315253
0L
#315256
1Q
#315438
0U
#315506
1\
#315608
0R
#315622
1T
#315808
0M
#315828
0^
#315990
1W
#315991
1U
#316052
1]
#318362
0@
0+
#318655
0C
0.
#318794
1=
1)
#319987
0A
0,
#320000
1"
1(
0&
11
#320766
1<
#320806
1;
#320903
0:
#322526
0O
0S
#323014
0Q
#323028
1L
#323329
0T
#323551
1M
#323709
0U
0W
#324180
19
#326245
1@
1+
#326982
0B
0-
#330000
0(
1&
01
#330796
1:
#330913
0;
#334704
18
#335648
1R
#340000
1(
0&
11
#340146
1A
1,
#340806
1;
#340903
0:
#342526
1O
1S
0V
#342934
0L
#342935
1U
#342950
1Q
#343219
1T
#343271
0[
#343489
0M
#343572
0U
#343587
1W
#343662
0\
#344191
0]
#344661
1\
#345207
1]
#346043
0@
0+
#350000
0#
0(
1&
01
#350796
1:
#350913
0;
0F
#354305
0G
#354704
0H
#355457
0W
#355518
1U
#355862
1^
#356559
0\
#357088
0]
#358784
1C
1.
#358841
1B
1-
#359757
0=
0)
#360000
0$
0!
1(
0&
11
#360806
1;
#360873
0X
#360893
0I
#360903
0:
#362526
0O
1V
1_
#362955
0^
0U
#363014
0Q
#363028
1L
#363070
1W
#363244
1\
#363273
1`
#363393
0R
#363452
1^
#363551
1M
#363790
1]
#364176
0`
#364975
0Y
#365047
0J
#365596
1D
1/
#366228
0B
0-
#366245
1@
1+
#366532
1=
1)
#367772
0A
0,
#370000
0(
1&
01
#370796
1:
#370913
0;
#374704
0K
0Z
#375340
0L
#375895
0M
#375899
0^
#376945
0a
#378449
0@
0+
#378726
0C
0.
#380000
1(
0&
11
#380806
1;
#380821
1?
10
#380903
0:
#382526
0S
0V
0_
#382935
1^
1U
#383151
0W
#383329
0T
#383349
1R
#383364
0\
#383367
1`
#383540
0^
#383697
1a
#383709
0U
#383893
0]
#384261
0`
#385559
0D
0/
#386562
0=
0)
#387549
0?
00
#387847
1A
1,
#390000
1!
0(
1&
01
#390786
1I
#390796
1:
#390913
0;
#394661
1J
#400000
0"
1#
1(
0&
11
#400806
1;
1F
#400873
0<
#400903
0:
#402526
1S
#403219
1T
#403263
0R
#403588
1U
#403950
0a
#403967
1G
#404350
1a
#404515
09
#406911
1B
1-
#407642
0A
0,
#410000
0(
1&
01
#410796
1:
#410913
0;
#414704
08
1H
1K
#415259
1L
#415364
1W
#415438
0U
#415690
0T
#415701
1R
#415746
1^
#415782
1M
#416070
0W
#416086
1U
#416459
1`
0^
#417180
0`
#418476
1@
1+
#420000
1(
0&
11
#420199
1A
1,
#420806
1;
#420903
0:
#422526
1O
1V
#422934
0L
#422950
1Q
#422955
0U
#423182
1[
#423302
0R
#423316
1T
#423489
0M
#423560
1`
#423684
1W
#423685
1U
#423877
1^
#423989
0a
#424447
1a
#426043
0@
0+
#426799
1C
1.
#426832
1>
1*
#427681
0A
0,
#430000
0(
1&
01
#430796
1:
#430913
0;
#440000
1$
1"
1(
0&
11
#440766
1<
1X
#440806
1;
#440903
0:
#442526
0O
0S
1_
#442955
0^
#443014
0Q
#443028
1L
#443244
1\
#443281
0`
#443329
0T
#443551
1M
#443709
0U
0W
#443790
1]
#444180
19
#444672
1Y
#445596
1D
1/
#445782
0C
0.
#446245
1@
1+
#446434
0>
0*
#446532
1=
1)
#446982
0B
0-
#450000
0#
0(
1&
01
#450796
1:
#450913
0;
0F
#454305
0G
#454704
18
0H
1Z
#455196
0[
#455518
1U
#455587
0\
#455648
1R
#455916
1\
1`
#458841
1B
1-
#459188
1>
1*
#460000
1(
0&
11
#460146
1A
1,
#460806
1;
#460903
0:
#462526
1O
1S
0_
#462934
0L
#462935
1^
#462950
1Q
#463219
1T
#463364
0\
#463375
0`
#463489
0M
#463572
0U
#463587
1W
#463893
0]
#463953
0^
#464661
1\
#465207
1]
#465559
0D
0/
#466043
0@
0+
#466528
0>
0*
#466845
0B
0-
#470000
0(
1&
01
#470796
1:
#470913
0;
#480000
0!
0"
1(
0&
11
#480806
1;
#480873
0<
#480893
0I
#480903
0:
#482526
0O
0V
#482935
1U
#483014
0Q
#483028
1L
#483151
0W
#483393
0R
#483551
1M
#483556
1^
#484253
0\
#484515
09
#484782
0]
#485047
0J
#486245
1@
1+
#486258
1B
1-
#486478
1C
1.
#487451
0=
0)
#487772
0A
0,
#490000
0(
1&
01
#490796
1:
#490913
0;
#494704
08
0K
#495340
0L
#495690
0T
#495701
1R
#495895
0M
#496070
0U
#498449
0@
0+
#499343
0B
0-
#500000
1'
1"
1(
0&
11
#500199
1A
1,
#500766
1<
1E
#500806
1;
#500903
0:
#502526
1_
#502955
0^
#503244
1\
#503273
1`
#503790
1]
#504180
19
#504755
0Y
0]
#504967
1G
#504971
1L
#504972
1J
#504975
09
#505494
1M
#505596
1D
1/
#505782
0C
0.
#506545
1>
1*
#508188
1@
1+
#510000
0(
1&
01
#510796
1:
#510913
0;
#514704
1H
1K
0Z
#515253
0L
#515258
1P
#515427
1U
#515750
0R
#515754
1T
#515808
0M
#515891
1^
#515916
0`
#515917
0\
#516107
0U
#516122
1W
#516462
1]
#516488
0^
#516849
0a
#517196
1\
#517726
0]
#518362
0@
0+
#519069
0>
0*
#520000
1(
0&
11
#520129
0A
0,
#520725
1?
10
#520806
1;
#520903
0:
#522526
0S
0_
#522935
1^
#523329
0T
#523349
1R
#523364
0\
#523367
1`
#523709
0W
#523725
1U
#523909
1]
#524007
1a
#524098
0^
#524819
0`
#525559
0D
0/
#526651
1=
1)
#527048
1B
1-
#527847
1A
1,
#527859
0?
00
#530000
0(
1&
01
#530796
1:
#530913
0;
#540000
0"
1(
0&
11
#540806
1;
#540873
0<
#540903
0:
#542526
1S
1V
#542955
0U
#543182
1[
#543219
1T
#543263
0R
#543560
1`
#543587
1W
#543588
1U
#543877
1^
#543950
0a
#544350
1a
#544531
19
#546799
1C
1.
#546832
1>
1*
#547642
0A
0,
#550000
1#
0(
1&
01
#550796
1:
#550806
1F
#550913
0;
#553951
0G
#554704
18
0H
#555196
0[
#555529
0U
#555648
1R
#558802
0B
0-
#560000
1(
0&
11
#560146
1A
1,
#560806
1;
#560903
0:
#562526
0V
1_
#562935
1U
#562955
0^
#563151
0W
#563244
1\
#563281
0`
#563556
1^
#563774
0]
#564253
0\
#564798
1]
#565596
1D
1/
#566258
1B
1-
#566434
0>
0*
#570000
0(
1&
01
#570796
1:
#570913
0;
#575000
0#
11
#575913
0F
#579321
1G
#580000
1(
0&
01
#580806
1;
#580903
0:
#582526
1V
#582955
0U
#583070
1W
#583436
0^
#584144
1\
#584674
0]
#586228
0B
0-
#586263
0C
0.
#587343
0=
0)
#590000
0(
1&
11
#590796
1:
#590913
0;
#594704
1H
#595131
1[
#595427
1U
#598750
1B
1-
#600000
0$
1!
1"
1#
1(
0&
01
#600766
1<
#600786
1I
#600806
1;
1F
#600873
0X
#600903
0:
#602526
0_
#602935
1^
#603364
0\
#603367
1`
#603909
1]
#603951
0G
#604164
09
#604655
0J
#604991
1Y
#605559
0D
0/
#605857
1C
1.
#606639
1>
1*
#606651
1=
1)
#610000
0(
1&
11
#610796
1:
#610913
0;
#614704
08
0H
0K
1Z
#615196
0[
#615339
0P
#615346
1L
#615529
0U
#615845
0^
#615863
0T
#615869
1M
#615909
0`
#615916
1\
#616243
0W
#616259
1U
#616446
0]
#616648
1^
#617345
0\
#617890
1]
#618563
1@
1+
#619062
0>
0*
#620000
0"
1(
0&
01
#620806
1;
#620873
0<
#620903
0:
#622526
1O
1_
#622934
0L
#622950
1P
#622955
0^
#623244
1\
#623273
1`
#623442
0R
#623446
1T
#623489
0M
#623774
0]
#623799
0U
#623814
1W
#624196
1^
#624531
19
#624541
0a
#624920
0`
#625000
0#
11
#625268
1a
#625596
1D
1/
#625913
0F
#626043
0@
0+
#626443
0=
0)
#627072
0B
0-
#627821
0A
0,
#629321
1G
#630000
0!
0(
1&
01
#630796
1:
#630893
0I
#630913
0;
#634704
18
1H
#635053
1J
#635131
1[
#635427
1U
#635648
1R
#638750
1B
1-
#640000
1$
1(
0&
11
#640146
1A
1,
#640766
1X
#640806
1;
#640903
0:
#642526
0O
#643012
0P
#643028
1L
#643540
0R
#643551
1M
#644656
0Y
#646245
1@
1+
#647919
0A
0,
#650000
1#
0(
1&
01
#650796
1:
#650806
1F
#650913
0;
#653951
0G
#654704
0H
1K
0Z
#655196
0[
#655253
0L
#655258
1P
#655529
0U
#655757
1R
#655808
0M
#655899
0^
#658362
0@
0+
#658726
0C
0.
#658802
0B
0-
#660000
1"
1(
0&
11
#660255
1A
1,
#660766
1<
#660806
1;
#660903
0:
#662526
0V
0_
#662935
1^
1U
#663151
0W
#663364
0\
#663367
1`
#663540
0^
#663909
1]
#664164
09
#664261
0`
#665559
0D
0/
#666258
1B
1-
#666651
1=
1)
#670000
0(
1&
01
#670796
1:
#670913
0;
#674704
08
#675000
0#
11
#675709
0R
#675913
0F
#679321
1G
#680000
0$
0"
1(
0&
01
#680088
0A
0,
#680806
1;
#680873
0<
0X
#680903
0:
#682526
0S
1V
#682955
0U
#683070
1W
#683329
0T
#683349
1R
#683452
1^
#683697
0a
#683709
0W
#683725
1U
#684040
1a
#684098
0^
#684531
19
#684991
1Y
#687847
1A
1,
#690000
0(
1&
11
#690796
1:
#690913
0;
#694704
18
1H
1Z
#695131
1[
#695438
0U
#695509
1`
#695615
1T
#695656
0R
#695909
0`
#695916
1\
#695983
1W
#695984
1U
#696446
0]
#699115
0=
0)
#700000
1"
1(
0&
01
#700035
0A
0,
#700766
1<
#700806
1;
#700903
0:
#704164
09
#710000
0(
1&
11
#710796
1:
#710913
0;
#714704
08
#715690
0T
#715701
1R
#716070
0U
0W
#719343
0B
0-
#720000
1(
0&
01
#720199
1A
1,
#720806
1;
#720903
0:
#722526
1S
0V
#722935
1U
#723219
1T
#723263
0R
#723271
0[
#723572
0U
#723587
1W
#723662
0\
#724207
1]
#724314
0a
#724661
1\
#725191
0]
#727642
0A
0,
#728190
1?
10
#730000
0(
1&
11
#730796
1:
#730913
0;
#740000
0"
1(
0&
01
#740806
1;
#740873
0<
#740903
0:
#742526
0S
#743329
0T
#743349
1R
#743709
0W
#743725
1U
#744040
1a
#744114
1^
#744531
19
#744811
0\
#745356
1]
#747036
1C
1.
#747048
1B
1-
#747847
1A
1,
#747892
0?
00
#748098
1=
1)
#750000
1#
0(
1&
11
#750796
1:
#750806
1F
#750913
0;
#753951
0G
#754704
18
0H
#755529
0U
#755615
1T
#755656
0R
#755984
1U
#760000
1$
1"
1(
0&
01
#760035
0A
0,
#760766
1<
1X
#760806
1;
#760903
0:
#762526
1V
1_
#762955
0^
0U
#763070
1W
#763244
1\
#763273
1`
#763452
1^
#763774
0]
#764164
09
#764176
0`
#764656
0Y
#765596
1D
1/
#766228
0B
0-
#766443
0=
0)
#770000
0(
1&
11
#770796
1:
#770913
0;
#774704
08
0Z
#775000
0#
01
#775690
0T
#775701
1R
#775899
0^
#775913
0F
#776070
0W
#776086
1U
#776475
1^
#777172
0\
#777717
1]
#779321
1G
#779409
1B
1-
#780000
0"
1(
0&
11
#780199
1A
1,
#780459
1=
1)
#780806
1;
#780873
0<
#780903
0:
#782526
1S
#783219
1T
#783263
0R
#783572
0U
#783587
1W
#783953
0^
#784531
19
#784661
1\
#784999
0a
#785191
0]
#786780
0C
0.
#786845
0B
0-
#787642
0A
0,
#787860
0=
0)
#788875
1?
10
#790000
0(
1&
01
#790796
1:
#790913
0;
#794704
18
1H
#795131
1[
#795427
1U
#795648
1R
#796189
1a
#798750
1B
1-
#800000
1#
1(
0&
11
#800041
0?
00
#800146
1A
1,
#800806
1;
1F
#800903
0:
#802526
0_
#802935
1^
#803364
0\
#803367
1`
#803909
1]
#803951
0G
#805559
0D
0/
#805857
1C
1.
#806639
1>
1*
#806651
1=
1)
#810000
1!
0(
1&
01
#810786
1I
#810796
1:
#810913
0;
#814655
0J
#814704
0H
#815196
0[
#815529
0U
#818802
0B
0-
#820000
1"
1(
0&
11
#820766
1<
#820806
1;
#820903
0:
#822526
0V
1_
#822935
1U
#822955
0^
#823151
0W
#823244
1\
#823281
0`
#823556
1^
#823774
0]
#824164
09
#824253
0\
#824798
1]
#825596
1D
1/
#826258
1B
1-
#826434
0>
0*
#830000
0(
1&
01
#830796
1:
#830913
0;
#834704
08
0K
#835339
0P
#835346
1L
#835863
0T
#835869
1M
#836243
0U
#838563
1@
1+
#839516
0B
0-
#840000
0"
1(
0&
11
#840806
1;
#840873
0<
#840903
0:
#842526
1O
#842934
0L
#842950
1P
#843442
0R
#843446
1T
#843489
0M
#843815
1U
#844531
19
#846043
0@
0+
#847138
1B
1-
#847821
0A
0,
#850000
0(
1&
01
#850796
1:
#850913
0;
#854704
18
#855648
1R
#860000
1"
1(
0&
11
#860146
1A
1,
#860766
1<
#860806
1;
#860903
0:
#862526
0O
1V
#862955
0U
#863012
0P
#863028
1L
#863070
1W
#863436
0^
#863540
0R
#863551
1M
#864144
1\
#864164
09
#864674
0]
#866228
0B
0-
#866245
1@
1+
#866263
0C
0.
#867343
0=
0)
#867919
0A
0,
#870000
0(
1&
01
#870796
1:
#870913
0;
#874704
08
#875000
0#
11
#875690
0T
#875701
1R
#875913
0F
#876070
0W
#876086
1U
#876475
1^
#877172
0\
#877717
1]
#879321
1G
#879397
1C
1.
#879409
1B
1-
#880000
0"
1(
0&
01
#880199
1A
1,
#880459
1=
1)
#880806
1;
#880873
0<
#880903
0:
#882526
1O
#882934
0L
#882950
1P
#883442
0R
#883446
1T
#883489
0M
#883799
0U
#883814
1W
#884180
0^
#884531
19
#884888
1\
#885226
0a
#885418
0]
#886043
0@
0+
#887007
0C
0.
#887072
0B
0-
#887821
0A
0,
#888087
0=
0)
#889102
1?
10
#890000
0(
1&
11
#890796
1:
#890913
0;
#894704
18
1H
#895131
1[
#895427
1U
#895648
1R
#896189
1a
#898750
1B
1-
#900000
1"
1(
0&
01
#900041
0?
00
#900146
1A
1,
#900766
1<
#900806
1;
#900903
0:
#902526
0O
0_
#902935
1^
#903012
0P
#903028
1L
#903364
0\
#903367
1`
#903540
0R
#903551
1M
#903909
1]
#904164
09
#905559
0D
0/
#905857
1C
1.
#906245
1@
1+
#906639
1>
1*
#906651
1=
1)
#907919
0A
0,
#910000
0(
1&
11
#910796
1:
#910913
0;
#914704
08
#915690
0T
#915701
1R
#916070
0U
0W
#919343
0B
0-
#920000
0$
1(
0&
01
#920199
1A
1,
#920806
1;
#920873
0X
#920903
0:
#922526
1O
0V
1_
#922934
0L
#922935
1U
#922950
1P
#922955
0^
#923244
1\
#923271
0[
#923281
0`
#923442
0R
#923446
1T
#923489
0M
#923662
0\
#923774
0]
#923799
0U
#923814
1W
#924007
1^
#924180
0^
#924207
1]
#924541
0a
#924888
1\
#924991
1Y
#925000
1#
11
#925418
0]
#925596
1D
1/
#925782
0C
0.
#925806
1F
#926043
0@
0+
#926434
0>
0*
#927821
0A
0,
#928087
0=
0)
#928417
1?
10
#928951
0G
#930000
0(
1&
01
#930796
1:
#930913
0;
#934704
0H
1Z
#935457
0W
#935518
1U
#936280
1a
#936556
1`
#938841
1B
1-
#939828
1>
1*
#940000
1(
0&
11
#940132
0?
00
#940806
1;
#940903
0:
#942526
0O
0S
1V
0_
#942935
1^
#942955
0U
#943012
0P
#943028
1L
#943070
1W
#943329
0T
#943364
0\
#943375
0`
#943436
0^
#943551
1M
#943709
0W
#943725
1U
#943909
1]
#944114
1^
#945559
0D
0/
#946245
1@
1+
#946528
0>
0*
#946651
1=
1)
#947036
1C
1.
#950000
0(
1&
01
#950796
1:
#950913
0;
#960000
0"
1(
0&
11
#960806
1;
#960873
0<
#960903
0:
#962526
1O
1_
#962934
0L
#962950
1P
#962955
0^
#963244
1\
#963273
1`
#963449
1R
#963489
0M
#963774
0]
#964531
19
#965596
1D
1/
#965782
0C
0.
#966043
0@
0+
#966443
0=
0)
#966545
1>
1*
#967947
1A
1,
#970000
0(
1&
01
#970796
1:
#970913
0;
#974704
18
#975615
1T
#975656
0R
#975968
0U
#975983
1W
#976365
1^
#976710
0a
#977089
0`
#977437
1a
#979241
0B
0-
#979287
1C
1.
#980000
1"
1(
0&
11
#980035
0A
0,
#980242
0>
0*
#980766
1<
#980806
1;
#980903
0:
#982526
0O
0V
#982935
1U
#983012
0P
#983028
1L
#983151
0W
#983536
0T
#983540
0^
#983547
1R
#983551
1M
#983916
0U
#984164
09
#984250
1`
#986245
1@
1+
#986367
0C
0.
#987522
1>
1*
#988045
1A
1,
#990000
0(
1&
01
#990796
1:
#990913
0;
#994704
08
#995709
0R
