ParteD/simulation/qsim/ParteD.msim.vcd
$comment
	File created using the following command:
		vcd file ParteD.msim.vcd -direction
$end
$date
	Sun Nov 20 14:42:11 2022
$end
$version
	ModelSim Version 10.1d
$end
$timescale
	1ps
$end
$scope module maquina_de_estados_vlg_vec_tst $end
$var reg 1 ! clock $end
$var reg 1 " reset $end
$var reg 1 # x $end
$var wire 1 $ Z [3] $end
$var wire 1 % Z [2] $end
$var wire 1 & Z [1] $end
$var wire 1 ' Z [0] $end
$var wire 1 ( sampler $end
$scope module i1 $end
$var wire 1 ) gnd $end
$var wire 1 * vcc $end
$var wire 1 + unknown $end
$var tri1 1 , devclrn $end
$var tri1 1 - devpor $end
$var tri1 1 . devoe $end
$var wire 1 / clock~input_o $end
$var wire 1 0 clock~inputclkctrl_outclk $end
$var wire 1 1 Z[0]~output_o $end
$var wire 1 2 Z[1]~output_o $end
$var wire 1 3 Z[2]~output_o $end
$var wire 1 4 Z[3]~output_o $end
$var wire 1 5 reset~input_o $end
$var wire 1 6 fstate.state_bit_1~0_combout $end
$var wire 1 7 fstate.state_bit_1~q $end
$var wire 1 8 fstate.state_bit_0~0_combout $end
$var wire 1 9 fstate.state_bit_0~q $end
$var wire 1 : x~input_o $end
$var wire 1 ; fstate.state_bit_2~0_combout $end
$var wire 1 < fstate.state_bit_2~1_combout $end
$var wire 1 = fstate.state_bit_2~q $end
$var wire 1 > Z~0_combout $end
$var wire 1 ? Z~1_combout $end
$var wire 1 @ Z~2_combout $end
$var wire 1 A Z~3_combout $end
$upscope $end
$upscope $end
$enddefinitions $end
#0
$dumpvars
0!
0"
1#
x'
x&
x%
x$
x(
0)
1*
x+
1,
1-
1.
0/
x0
x1
x2
x3
x4
05
x6
07
x8
09
1:
x;
x<
0=
x>
x?
x@
xA
$end
#173
00
#861
0>
#866
0?
#1010
0@
#1014
06
#1031
0A
#3430
01
0'
#3512
1;
#3540
18
#3599
04
0$
#3622
02
0&
#3856
03
0%
#3874
1<
#25000
1!
0(
#25819
1/
#26006
10
#28397
19
1=
#28826
08
#28837
1@
#28838
16
1?
#29289
0?
#29332
0@
#29334
06
#29345
1A
#31933
14
1$
#50000
0!
1(
#50924
0/
#51097
00
#75000
1!
0(
#75819
1/
#76006
10
#78397
09
#78806
18
#78925
16
#78927
1@
#81813
13
1%
#100000
0!
1(
#100924
0/
#101097
00
#125000
1!
0(
#125819
1/
#126006
10
#128397
17
19
#128822
06
#128826
08
#129158
1?
#129270
0<
#131966
12
1&
#150000
0#
0!
1(
#150874
0:
#150924
0/
#151097
00
#175000
1!
0(
#175819
1/
#176006
10
#178397
07
09
0=
#178888
0;
#178925
16
#178951
18
#179263
0?
#179407
0@
#179411
06
#179428
0A
#181996
04
0$
#182019
02
0&
#182253
03
0%
#200000
0!
1(
#200924
0/
#201097
00
#210000
1#
0(
#210769
1:
#214135
1;
#214497
1<
#225000
1!
1(
#225819
1/
#226006
10
#228397
19
1=
#228826
08
#228837
1@
#228838
16
1?
#229289
0?
#229332
0@
#229334
06
#229345
1A
#231933
14
1$
#250000
0!
0(
#250924
0/
#251097
00
#275000
1!
1(
#275819
1/
#276006
10
#278397
09
#278806
18
#278925
16
#278927
1@
#281813
13
1%
#300000
0#
0!
0(
#300874
0:
#300924
0/
#301097
00
#325000
1!
1(
#325819
1/
#326006
10
#328397
17
19
#328822
06
#328826
08
#329158
1?
#329270
0<
#331966
12
1&
#350000
0!
0(
#350924
0/
#351097
00
#375000
1!
1(
#375819
1/
#376006
10
#378397
07
09
0=
#378888
0;
#378925
16
#378951
18
#379263
0?
#379407
0@
#379411
06
#379428
0A
#381996
04
0$
#382019
02
0&
#382253
03
0%
#400000
0!
0(
#400924
0/
#401097
00
#420000
1#
1(
#420769
1:
#424135
1;
#424497
1<
#425000
1!
0(
#425819
1/
#426006
10
#428397
19
1=
#428826
08
#428837
1@
#428838
16
1?
#429289
0?
#429332
0@
#429334
06
#429345
1A
#431933
14
1$
#450000
0#
0!
1(
#450874
0:
#450924
0/
#451097
00
#475000
1!
0(
#475819
1/
#476006
10
#478397
09
#478806
18
#478925
16
#478927
1@
#480000
1#
1(
#480769
1:
#481813
13
1%
#500000
0!
0(
#500924
0/
#501097
00
#525000
1!
1(
#525819
1/
#526006
10
#528397
17
19
#528822
06
#528826
08
#529158
1?
#529270
0<
#531966
12
1&
#550000
0!
0(
#550924
0/
#551097
00
#575000
1!
1(
#575819
1/
#576006
10
#578397
07
09
0=
#578925
16
#578951
18
#579205
1<
#579263
0?
#579407
0@
#579411
06
#579428
0A
#581996
04
0$
#582019
02
0&
#582253
03
0%
#600000
0#
0!
0(
#600874
0:
#600924
0/
#601097
00
#604465
0;
#604835
0<
#625000
1!
1(
#625819
1/
#626006
10
#628397
19
#628826
08
#628837
1@
#628838
16
1?
#631646
12
1&
#631723
13
1%
#650000
0!
0(
#650924
0/
#651097
00
#660000
1#
1(
#660769
1:
#664135
1;
#675000
1!
0(
#675819
1/
#676006
10
#678397
17
09
#678806
18
#678860
1A
#679155
1>
#679205
1<
#681448
14
1$
#681743
11
1'
#690000
0#
1(
#690874
0:
#694465
0;
#694835
0<
#700000
0!
0(
#700924
0/
#701097
00
#725000
1!
1(
#725819
1/
#726006
10
#728397
19
#728821
0@
#728822
06
0?
#728826
08
#731578
02
0&
#731667
03
0%
#740000
1"
0(
#740769
15
#743837
0>
0A
#746405
04
0$
#746406
01
0'
#750000
0!
1(
#750924
0/
#751097
00
#775000
1!
0(
#775819
1/
#776006
10
#778397
07
09
#780000
0"
1(
#780874
05
#784414
18
#800000
0!
0(
#800924
0/
#801097
00
#825000
1!
1(
#825819
1/
#826006
10
#828397
19
#828826
08
#828837
1@
#828838
16
1?
#831646
12
1&
#831723
13
1%
#840000
1#
0(
#840769
1:
#844135
1;
#850000
0!
1(
#850924
0/
#851097
00
#870000
0#
0(
#870874
0:
#874465
0;
#875000
1!
1(
#875819
1/
#876006
10
#878397
17
09
#878806
18
#878860
1A
#879155
1>
#881448
14
1$
#881743
11
1'
#900000
0!
0(
#900924
0/
#901097
00
#925000
1!
1(
#925819
1/
#926006
10
#928397
19
#928821
0@
#928822
06
0?
#928826
08
#930000
1#
0(
#930769
1:
#931578
02
0&
#931667
03
0%
#934135
1;
#950000
0!
1(
#950924
0/
#951097
00
#960000
0#
0(
#960874
0:
#964465
0;
#975000
1!
1(
#975819
1/
#976006
10
#978397
07
09
#978806
18
#978931
0A
#979258
0>
#981499
04
0$
#981827
01
0'
#990000
1#
0(
#990769
1:
#994135
1;
#994497
1<
