ParteB/simulation/qsim/Sumador.msim.vcd
$comment
	File created using the following command:
		vcd file Sumador.msim.vcd -direction
$end
$date
	Fri Nov 11 13:21:10 2022
$end
$version
	ModelSim Version 10.1d
$end
$timescale
	1ps
$end
$scope module sumador_FFD_vlg_vec_tst $end
$var reg 1 ! clk $end
$var reg 1 " in_a $end
$var reg 1 # in_b $end
$var reg 1 $ in_cin $end
$var wire 1 % o_cout $end
$var wire 1 & o_f $end
$var wire 1 ' sampler $end
$scope module i1 $end
$var wire 1 ( gnd $end
$var wire 1 ) vcc $end
$var wire 1 * unknown $end
$var tri1 1 + devclrn $end
$var tri1 1 , devpor $end
$var tri1 1 - devoe $end
$var wire 1 . o_f~output_o $end
$var wire 1 / o_cout~output_o $end
$var wire 1 0 clk~input_o $end
$var wire 1 1 clk~inputclkctrl_outclk $end
$var wire 1 2 in_a~input_o $end
$var wire 1 3 D1|Q~feeder_combout $end
$var wire 1 4 D1|Q~q $end
$var wire 1 5 in_b~input_o $end
$var wire 1 6 D2|Q~feeder_combout $end
$var wire 1 7 D2|Q~q $end
$var wire 1 8 in_cin~input_o $end
$var wire 1 9 D3|Q~feeder_combout $end
$var wire 1 : D3|Q~q $end
$var wire 1 ; f~0_combout $end
$var wire 1 < D5|Q~q $end
$var wire 1 = cout~0_combout $end
$var wire 1 > D4|Q~q $end
$upscope $end
$upscope $end
$enddefinitions $end
#0
$dumpvars
0!
0"
1#
0$
x%
x&
x'
0(
1)
x*
1+
1,
1-
x.
x/
00
x1
02
x3
04
15
x6
07
08
x9
0:
x;
0<
x=
0>
$end
#173
01
#633
0=
#819
0;
#2963
0/
0%
#3220
0.
0&
#3434
09
#3477
16
#3967
03
#20000
1!
0'
#20776
10
#20963
11
#23316
17
#23865
1;
#40000
0!
1'
#40883
00
#41056
01
#60000
1"
1$
1!
0'
#60776
10
#60786
12
#60806
18
#60963
11
#63316
1<
#64010
19
#64487
13
#66598
1.
1&
#80000
0!
1'
#80883
00
#81056
01
#90000
0#
0$
0'
#90873
05
#90913
08
#94347
09
#94576
06
#100000
1!
1'
#100776
10
#100963
11
#103316
14
07
#120000
1#
1$
0!
0'
#120766
15
#120806
18
#120883
00
#121056
01
#124010
19
#124243
16
#140000
1!
1'
#140776
10
#140963
11
#143316
17
1:
#143736
1=
#160000
0!
0'
#160883
00
#161056
01
#180000
0"
0#
1!
1'
#180776
10
#180873
05
#180893
02
#180963
11
#183316
1>
#184576
06
#184860
03
#186327
1/
1%
#200000
0!
0'
#200883
00
#201056
01
#210000
1"
1#
1'
#210766
15
#210786
12
#214243
16
#214487
13
#220000
1!
0'
#220776
10
#220963
11
#240000
0$
0"
0!
1'
#240883
00
#240893
02
#240913
08
#241056
01
#244347
09
#244860
03
#260000
1!
0'
#260776
10
#260963
11
#263316
04
0:
#263949
0=
#270000
1"
1'
#270786
12
#274487
13
#280000
0!
0'
#280883
00
#281056
01
#300000
0#
0"
1!
1'
#300776
10
#300873
05
#300893
02
#300963
11
#303316
14
0>
#303868
1=
#304049
0;
#304576
06
#304860
03
#306279
0/
0%
#320000
0!
0'
#320883
00
#321056
01
#340000
1!
1'
#340776
10
#340963
11
#343316
04
07
0<
1>
#343949
0=
#346327
1/
1%
#346536
0.
0&
#360000
1$
1"
0!
0'
#360786
12
#360806
18
#360883
00
#361056
01
#364010
19
#364487
13
#380000
1!
1'
#380776
10
#380963
11
#383316
14
1:
0>
#383736
1=
#386279
0/
0%
#390000
0"
0'
#390893
02
#394860
03
#400000
0!
1'
#400883
00
#401056
01
#420000
1#
0$
1!
0'
#420766
15
#420776
10
#420913
08
#420963
11
#423316
04
1>
#423949
0=
#424124
1;
#424243
16
#424347
09
#426327
1/
1%
#440000
0!
1'
#440883
00
#441056
01
#450000
1"
0'
#450786
12
#454487
13
#460000
1!
1'
#460776
10
#460963
11
#463316
14
17
0:
1<
0>
#463794
0;
#463868
1=
#466279
0/
0%
#466598
1.
1&
#480000
0#
0!
0'
#480873
05
#480883
00
#481056
01
#484576
06
#500000
1!
1'
#500776
10
#500963
11
#503316
07
0<
1>
#503951
1;
#504110
0=
#506327
1/
1%
#506536
0.
0&
#520000
0!
0'
#520883
00
#521056
01
#540000
1$
1#
1!
1'
#540766
15
#540776
10
#540806
18
#540963
11
#543316
1<
0>
#544010
19
#544243
16
#546279
0/
0%
#546598
1.
1&
#560000
0!
0'
#560883
00
#561056
01
#570000
0#
1'
#570873
05
#574576
06
#580000
1!
0'
#580776
10
#580963
11
#583316
1:
#583720
0;
#583736
1=
#600000
0"
0!
1'
#600883
00
#600893
02
#601056
01
#604860
03
#620000
1!
0'
#620776
10
#620963
11
#623316
04
0<
1>
#623949
0=
#624124
1;
#626327
1/
1%
#626536
0.
0&
#640000
0!
1'
#640883
00
#641056
01
#660000
0$
1#
1"
1!
0'
#660766
15
#660776
10
#660786
12
#660913
08
#660963
11
#663316
1<
0>
#664243
16
#664347
09
#664487
13
#666279
0/
0%
#666598
1.
1&
#680000
0!
1'
#680883
00
#681056
01
#690000
1$
0'
#690806
18
#694010
19
#700000
1!
1'
#700776
10
#700963
11
#703316
14
17
#703868
1=
#720000
0#
0!
0'
#720873
05
#720883
00
#721056
01
#724576
06
#740000
1!
1'
#740776
10
#740963
11
#743316
07
1>
#743945
0;
#746327
1/
1%
#760000
0!
0'
#760883
00
#761056
01
#780000
0"
1!
1'
#780776
10
#780893
02
#780963
11
#783316
0<
#784860
03
#786536
0.
0&
#800000
0!
0'
#800883
00
#801056
01
#810000
1"
1'
#810786
12
#814487
13
#820000
1!
0'
#820776
10
#820963
11
#840000
0!
1'
#840883
00
#841056
01
#860000
1!
0'
#860776
10
#860963
11
#870000
1#
1'
#870766
15
#874243
16
#880000
0!
0'
#880883
00
#881056
01
#900000
0"
1!
1'
#900776
10
#900893
02
#900963
11
#903316
17
#903865
1;
#904860
03
#920000
0!
0'
#920883
00
#921056
01
#930000
0$
0#
1'
#930873
05
#930913
08
#934347
09
#934576
06
#940000
1!
0'
#940776
10
#940963
11
#943316
04
07
0:
1<
#943949
0=
#944135
0;
#946598
1.
1&
#960000
0!
1'
#960883
00
#961056
01
#980000
1!
0'
#980776
10
#980963
11
#983316
0<
0>
#986279
0/
0%
#986536
0.
0&
