ParteA/simulation/qsim/combinacional.msim.vcd
$comment
	File created using the following command:
		vcd file combinacional.msim.vcd -direction
$end
$date
	Fri Nov 11 12:30:44 2022
$end
$version
	ModelSim Version 10.1d
$end
$timescale
	1ps
$end
$scope module combinacional_vlg_vec_tst $end
$var reg 1 ! sw1 $end
$var reg 1 " sw2 $end
$var wire 1 # led $end
$var wire 1 $ sampler $end
$scope module i1 $end
$var wire 1 % gnd $end
$var wire 1 & vcc $end
$var wire 1 ' unknown $end
$var tri1 1 ( devclrn $end
$var tri1 1 ) devpor $end
$var tri1 1 * devoe $end
$var wire 1 + led~output_o $end
$var wire 1 , sw2~input_o $end
$var wire 1 - sw1~input_o $end
$var wire 1 . led~0_combout $end
$upscope $end
$upscope $end
$enddefinitions $end
#0
$dumpvars
0!
0"
x#
x$
0%
1&
x'
1(
1)
1*
x+
0,
0-
x.
$end
#4189
0.
#6830
1+
1#
#60000
1!
1"
0$
#60766
1-
#60786
1,
#64687
1.
#67397
0+
0#
#90000
0!
0"
1$
#90873
0-
#90893
0,
#95062
0.
#97703
1+
1#
#120000
1"
0$
#120786
1,
#124687
1.
#127397
0+
0#
#150000
1!
0"
1$
#150766
1-
#150893
0,
#180000
1"
0$
#180786
1,
#210000
0"
1$
#210893
0,
#240000
1"
0$
#240786
1,
#270000
0"
1$
#270893
0,
#300000
0!
1"
0$
#300786
1,
#300873
0-
#330000
0"
1$
#330893
0,
#335061
0.
#337702
1+
1#
#360000
1"
0$
#360786
1,
#364687
1.
#367397
0+
0#
#390000
1!
0"
1$
#390766
1-
#390893
0,
#420000
0!
1"
0$
#420786
1,
#420873
0-
#480000
1!
1$
#480766
1-
#540000
0"
0!
0$
#540873
0-
#540893
0,
#545062
0.
#547703
1+
1#
#570000
1!
1$
#570766
1-
#574753
1.
#577463
0+
0#
#600000
0!
0$
#600873
0-
#605062
0.
#607703
1+
1#
#630000
1!
1$
#630766
1-
#634753
1.
#637463
0+
0#
#660000
1"
0!
0$
#660786
1,
#660873
0-
#750000
0"
1!
1$
#750766
1-
#750893
0,
#780000
1"
0$
#780786
1,
#810000
0!
1$
#810873
0-
#870000
0"
1!
0$
#870766
1-
#870893
0,
#930000
1"
0!
1$
#930786
1,
#930873
0-
#960000
0"
1!
0$
#960766
1-
#960893
0,
#990000
1"
0!
1$
#990786
1,
#990873
0-
